n_agent,rate_learning,rate_forgetting
0,0.19977375780652074,
1,0.7584972102805774,
2,0.43300300105038436,
3,0.09730970908403624,
4,0.1762011651234926,
5,0.8276884125608864,
6,0.6624728029400064,
7,0.19203349835619088,
8,0.7763787756939844,
9,0.04500457229532384,
10,0.29989205007786823,
11,0.5278265457098026,
12,0.4380290666199933,
13,0.9674529125896647,
14,0.6984253005793577,
15,0.6835103828122017,
16,0.611329114191716,
17,0.7433425373633264,
18,0.21136969380007375,
19,0.8494497644959468,
