n_agent,rate_learning,rate_forgetting
0,0.6369616873214543,0.5
1,0.04097352393619469,0.5
2,0.8132702392002724,0.5
3,0.6066357757671799,0.5
4,0.5436249914654229,0.5
5,0.8158535541215322,0.5
6,0.8574042765875693,0.5
7,0.7296554464299441,0.5
8,0.8631789223498866,0.5
9,0.2997118905373848,0.5
10,0.028319671145462966,0.5
11,0.6706244146936303,0.5
12,0.6153851114812539,0.5
13,0.997209935789211,0.5
14,0.6855419844806947,0.5
15,0.6884467305709401,0.5
16,0.13509650502241122,0.5
17,0.5253543224757259,0.5
18,0.4858353588317891,0.5
19,0.9340435159562497,0.5
